\begin{tikzpicture}[thick]
  % substrate atoms
  \draw[blue, fill=blue] (0.5, 0.5) circle (0.1);
  \draw[blue, fill=blue] (0.9, 0.5) circle (0.1);
  \draw[blue, fill=blue] (1.3, 0.5) circle (0.1);
  \draw[blue, fill=blue] (1.7, 0.5) circle (0.1);
  \draw[blue, fill=blue] (2.1, 0.5) circle (0.1);
  \draw[blue, fill=blue] (2.5, 0.5) circle (0.1);

  % adatom
  \draw[blue, fill=blue] (1.5, 0.9) circle (0.1);
  \draw (1.7, 1.3) -- (1.5, 0.9);
  \node[right] at (1.7, 1.3) {Nearest atom};

  % top atomic plane
  \draw[dashed] (0.2, 0.5) -- (2.8, 0.5);
  \node[below] at (1.5, 0.4) {Top atomic plane};

  % image plane
  \draw[dashed] (0.2, 1.0) -- (2.8, 1.0);
  \node[above] at (2.3, 1.0) {Image plane};
  \draw (2.3, 0.5) -- (2.3, 1.0);
  \node[right] at (2.3, 0.75) {$z'_{\text{im}}$};

  % point
  \draw[red, fill=red] (0.7, 1.5) circle(0.05);
  \node[right] at (0.75, 1.5) {Point in space};

  % distance to nearest atom
  \draw (0.7, 1.5) -- (1.5, 0.9);
  \node[above right] at (1.1, 1.2) {$r$};

  % distance to top atomic plane
  \draw (0.7, 1.5) -- (0.7, 0.5);
  \node[left] at (0.7, 1.2) {$z'$};
\end{tikzpicture}
